{
    "name": "flare6snczgwu2pt",
    "children": [
      {
        "name": "analytics1e3mqgz91dbi",
        "children": [
          {
            "name": "cluster4dz4p9hrhyc",
            "children": [
              {
                "name": "AgglomerativeClusterplzeqc59ozn",
                "data1": 6.040264789722546,
                "data2": 2.312559832443756,
                "data3": 0.41816826032078913,
                "data4": 5.127908989098405
              },
              {
                "name": "CommunityStructurefle0rrrgz8u",
                "data1": 5.929236688719265,
                "data2": 5.705476807608488,
                "data3": 6.486936978958653,
                "data4": 9.074750529084818
              },
              {
                "name": "HierarchicalCluster67tn42nera",
                "data1": 1.5921387311463484,
                "data2": 1.436098889568791,
                "data3": 4.953737554165948,
                "data4": 5.445045707313798
              },
              {
                "name": "MergeEdgepzbtm6ljf",
                "data1": 6.170755867590963,
                "data2": 1.9356044360935716,
                "data3": 1.119165973314677,
                "data4": 6.11986239562383
              }
            ]
          },
          {
            "name": "graphsis7xikb1f",
            "children": [
              {
                "name": "BetweennessCentrality04jxqjuq1hj5",
                "data1": 1.4957249431646753,
                "data2": 7.382455390572118,
                "data3": 0.3998381321549404,
                "data4": 3.286206202257225
              },
              {
                "name": "LinkDistanceein3p786hsj",
                "data1": 2.3785325564777695,
                "data2": 6.600842384004287,
                "data3": 0.6440558667710461,
                "data4": 1.2976929380662083
              },
              {
                "name": "MaxFlowMinCutvifj9a0s4rs",
                "data1": 5.146823801351813,
                "data2": 4.137296322612002,
                "data3": 9.388443645764793,
                "data4": 2.00803403652705
              },
              {
                "name": "ShortestPathsfamo1xqpsau",
                "data1": 3.5890416954433784,
                "data2": 1.2869942182114023,
                "data3": 2.596428725733521,
                "data4": 6.206752518373445
              },
              {
                "name": "SpanningTree76y2xs9puo6",
                "data1": 5.208349275122936,
                "data2": 4.776965920391982,
                "data3": 1.8521109849420634,
                "data4": 5.542960170441274
              }
            ]
          },
          {
            "name": "optimizationv7pw6fm279",
            "children": [
              {
                "name": "AspectRatioBankerr6503kmswip",
                "data1": 5.563790930253143,
                "data2": 1.1298496816199408,
                "data3": 9.584162981323807,
                "data4": 9.31828965994632
              }
            ]
          }
        ]
      },
      {
        "name": "animategrjloglmlmb",
        "children": [
          {
            "name": "Easingzb3k6oyy7q",
            "data1": 3.552597843323499,
            "data2": 2.8577478086750494,
            "data3": 1.2841566586696826,
            "data4": 2.9597849990339107
          },
          {
            "name": "FunctionSequence20lfttjxf1v",
            "data1": 6.092634317349864,
            "data2": 1.9735197992322149,
            "data3": 7.337984380642566,
            "data4": 6.2704257734150595
          },
          {
            "name": "interpolatej9g4wpv86ij",
            "children": [
              {
                "name": "ArrayInterpolatorskj7g0lznr",
                "data1": 6.291900117753052,
                "data2": 3.319807309661253,
                "data3": 6.863286813608127,
                "data4": 6.97635466866751
              },
              {
                "name": "ColorInterpolatorf2dnym8z32o",
                "data1": 8.10667081369305,
                "data2": 3.7594746453625003,
                "data3": 0.6687552566220788,
                "data4": 8.392252325855159
              },
              {
                "name": "DateInterpolatorh5li4e1ga1o",
                "data1": 3.2954337319413147,
                "data2": 0.5501057489023565,
                "data3": 2.7035713923255833,
                "data4": 0.3454017885471
              },
              {
                "name": "Interpolatorg3iuq1stz9f",
                "data1": 2.1593196308656233,
                "data2": 1.308520001535487,
                "data3": 6.2592052988961004,
                "data4": 3.1112491213129614
              },
              {
                "name": "MatrixInterpolatorg54micl850f",
                "data1": 5.196355082542529,
                "data2": 3.601863206670674,
                "data3": 1.4347253983485242,
                "data4": 0.8639557221857314
              },
              {
                "name": "NumberInterpolatorf5zftvtjqov",
                "data1": 0.9623390373486919,
                "data2": 8.98263485666393,
                "data3": 7.669992389196915,
                "data4": 7.93732071581262
              },
              {
                "name": "ObjectInterpolatorxr45oqd957i",
                "data1": 6.647110749507204,
                "data2": 8.288982239267082,
                "data3": 1.8472535946729458,
                "data4": 6.857368219039435
              },
              {
                "name": "PointInterpolatorw9jgp40wdsm",
                "data1": 5.356529188543036,
                "data2": 2.387111154383468,
                "data3": 9.314535292910145,
                "data4": 2.332875908894727
              },
              {
                "name": "RectangleInterpolatormvrs1vzefl",
                "data1": 8.552653586954305,
                "data2": 4.296865186710642,
                "data3": 3.056787375922372,
                "data4": 3.236671264433904
              }
            ]
          },
          {
            "name": "ISchedulableuicwekwn8u",
            "data1": 9.79566144132907,
            "data2": 9.711598183088178,
            "data3": 2.004447427742953,
            "data4": 8.293564221227252
          },
          {
            "name": "Parallel3auwnhvfjvp",
            "data1": 6.172808064161587,
            "data2": 0.724413520759089,
            "data3": 0.48523359808757704,
            "data4": 2.5932124312478995
          },
          {
            "name": "Pausec05tj84wk58",
            "data1": 8.436778828635836,
            "data2": 7.517215492053414,
            "data3": 4.612947062282936,
            "data4": 8.879748098068589
          },
          {
            "name": "Schedulerpm59kswb9fa",
            "data1": 1.2492146449520989,
            "data2": 5.593610726263081,
            "data3": 4.064877898020303,
            "data4": 2.9416660659257694
          },
          {
            "name": "Sequence1kuict7q8sr",
            "data1": 1.986357141083566,
            "data2": 8.038817659673194,
            "data3": 0.06233680366712007,
            "data4": 7.1728914392240455
          },
          {
            "name": "Transitionlp91dtmqs5",
            "data1": 1.9321248937089819,
            "data2": 2.6018079291856373,
            "data3": 8.998246301164155,
            "data4": 8.174384311745062
          },
          {
            "name": "Transitionerfllnvsrsc4r",
            "data1": 6.94440185180928,
            "data2": 2.3195865428883096,
            "data3": 8.426637654047598,
            "data4": 3.260398623392986
          },
          {
            "name": "TransitionEventx6cbb3f8hnd",
            "data1": 1.9106007055909302,
            "data2": 2.2741387728879716,
            "data3": 5.394765197462825,
            "data4": 3.696506340898555
          },
          {
            "name": "Tween9xxhll7dtw",
            "data1": 9.73793578834609,
            "data2": 3.03087018014478,
            "data3": 3.578365284312228,
            "data4": 1.2181916579238037
          }
        ]
      },
      {
        "name": "datazhegpshcur",
        "children": [
          {
            "name": "converterslzcj2skwnfb",
            "children": [
              {
                "name": "Convertersiabpyv0kqb",
                "data1": 7.4325420517805405,
                "data2": 9.142796777007474,
                "data3": 1.3896556557862871,
                "data4": 7.731847721936327
              },
              {
                "name": "DelimitedTextConverteryv4y86lph8",
                "data1": 9.368683658034168,
                "data2": 0.6558396545579517,
                "data3": 2.597041043537796,
                "data4": 6.0076417573434515
              },
              {
                "name": "GraphMLConverterqk8m6jx9ybq",
                "data1": 9.725006647194745,
                "data2": 0.2890298383001695,
                "data3": 3.829783797575703,
                "data4": 3.088990371765052
              },
              {
                "name": "IDataConverterpu2awgemvd",
                "data1": 8.357214873143775,
                "data2": 7.019248879047852,
                "data3": 7.370646080422625,
                "data4": 2.68388286815535
              },
              {
                "name": "JSONConvertern3arb53uqg",
                "data1": 0.8606742529484991,
                "data2": 3.86549478545406,
                "data3": 0.3385796387653188,
                "data4": 0.3893666878620747
              }
            ]
          },
          {
            "name": "DataFieldaah2796xo3t",
            "data1": 7.837036886228065,
            "data2": 0.041675887566016576,
            "data3": 9.778250539646336,
            "data4": 2.5087658573944926
          },
          {
            "name": "DataSchemazln0m6e9gq",
            "data1": 7.712219378287291,
            "data2": 5.270035333905342,
            "data3": 9.179542779302247,
            "data4": 6.694835536419188
          },
          {
            "name": "DataSetti4skc8h0eb",
            "data1": 0.9260046519003025,
            "data2": 5.142995334991426,
            "data3": 7.520158855008329,
            "data4": 7.678307665696988
          },
          {
            "name": "DataSourceks0zc5egpnf",
            "data1": 1.8111218523390773,
            "data2": 3.1322904179432194,
            "data3": 0.38308079019135405,
            "data4": 8.546488017127894
          },
          {
            "name": "DataTablescuyjhcyal",
            "data1": 6.794153697398002,
            "data2": 5.099770051466991,
            "data3": 0.5599314953946175,
            "data4": 5.487252922156712
          },
          {
            "name": "DataUtil6o0d4wzgqf6",
            "data1": 8.341429445311707,
            "data2": 7.897411074628838,
            "data3": 4.437866356216194,
            "data4": 9.777738715658307
          }
        ]
      },
      {
        "name": "displayw6xkj52o6",
        "children": [
          {
            "name": "DirtySpriteoa7dnzymmmj",
            "data1": 0.9288121681922346,
            "data2": 1.2353253086357894,
            "data3": 5.622952955200272,
            "data4": 1.1378023884260888
          },
          {
            "name": "LineSprite4c0fuyhkfwh",
            "data1": 9.549850416498938,
            "data2": 9.426266294958603,
            "data3": 8.730009739903279,
            "data4": 3.215491627884026
          },
          {
            "name": "RectSpritewlrqqkc7daq",
            "data1": 5.16203535702803,
            "data2": 9.48176978468282,
            "data3": 1.9319246708624513,
            "data4": 5.438987056915929
          },
          {
            "name": "TextSprite59y6fr1qnta",
            "data1": 6.923384103216646,
            "data2": 9.620182258728043,
            "data3": 6.88260288640421,
            "data4": 1.7635153925724223
          }
        ]
      },
      {
        "name": "flexa87n374ht8d",
        "children": [
          {
            "name": "FlareVisg9280c0e6jt",
            "data1": 5.500750975271222,
            "data2": 7.233025838032281,
            "data3": 6.683007686752084,
            "data4": 3.2125374004125495
          }
        ]
      },
      {
        "name": "physics8aetbbaeepq",
        "children": [
          {
            "name": "DragForce8qhcbrhoenf",
            "data1": 3.9646860696697224,
            "data2": 3.7593044776866256,
            "data3": 1.4193967802654655,
            "data4": 5.69059530586567
          },
          {
            "name": "GravityForce8m1q2cq4l0u",
            "data1": 4.700580694383998,
            "data2": 7.39735156400063,
            "data3": 1.237769167090776,
            "data4": 9.607143905713407
          },
          {
            "name": "IForcego2hyug5l6",
            "data1": 3.4641307610308325,
            "data2": 3.8881690787970697,
            "data3": 9.649827347209106,
            "data4": 6.254084443013273
          },
          {
            "name": "NBodyForceza659jhw5s7",
            "data1": 0.6843110876245269,
            "data2": 1.6945794465359951,
            "data3": 7.529725835149039,
            "data4": 3.30973358777198
          },
          {
            "name": "Particlegik8pv3gkkl",
            "data1": 3.5210874798157947,
            "data2": 7.834551060998191,
            "data3": 4.184232407675251,
            "data4": 7.527631407350723
          },
          {
            "name": "Simulation5b32oyw01z",
            "data1": 6.844252610165743,
            "data2": 9.088464332847856,
            "data3": 0.5511904758504567,
            "data4": 6.859658541450293
          },
          {
            "name": "Springr3rz5nnu4bp",
            "data1": 7.441410765294215,
            "data2": 2.602641525011433,
            "data3": 4.939086801276836,
            "data4": 2.562681992888662
          },
          {
            "name": "SpringForcedeniushyijv",
            "data1": 6.728660328754353,
            "data2": 7.991933413079547,
            "data3": 7.266490219521468,
            "data4": 2.6665488301080753
          }
        ]
      },
      {
        "name": "queryb8ug80ufwc9",
        "children": [
          {
            "name": "AggregateExpression41sapcrrd7z",
            "data1": 8.788192164063263,
            "data2": 0.5809472582922179,
            "data3": 4.608234733877942,
            "data4": 1.8864851679005006
          },
          {
            "name": "Ands2bew0o14g",
            "data1": 7.429947671910709,
            "data2": 2.1595527411095263,
            "data3": 3.612844721577963,
            "data4": 3.7291773456911526
          },
          {
            "name": "Arithmeticpe0qmcmuu2b",
            "data1": 5.227115124425024,
            "data2": 3.1843870222566704,
            "data3": 7.372030192337831,
            "data4": 5.001166779903978
          },
          {
            "name": "Averagexdandy1794l",
            "data1": 9.93547003985842,
            "data2": 1.403091621698214,
            "data3": 8.38265553870103,
            "data4": 5.814962105562422
          },
          {
            "name": "BinaryExpressionr1eelleus9l",
            "data1": 4.19210252459398,
            "data2": 2.044060170292645,
            "data3": 5.007048941864224,
            "data4": 4.406379714893235
          },
          {
            "name": "Comparisonjfji7k9qklf",
            "data1": 1.3059637030153035,
            "data2": 0.5943507917968104,
            "data3": 7.646827001738629,
            "data4": 6.248515847934282
          },
          {
            "name": "CompositeExpressiond4nzhxwew3n",
            "data1": 2.5880480937835544,
            "data2": 2.4067084356920576,
            "data3": 5.9299071873015,
            "data4": 2.926038470716345
          },
          {
            "name": "Count7tenh3w3w2h",
            "data1": 7.177707425633328,
            "data2": 1.5552120788496484,
            "data3": 3.117063958396015,
            "data4": 0.954992524767519
          },
          {
            "name": "DateUtilx8taye1moyo",
            "data1": 3.7054617054178696,
            "data2": 5.97619661647464,
            "data3": 6.421670301904569,
            "data4": 5.438072051388845
          },
          {
            "name": "Distinctugssmen2v8",
            "data1": 4.918233447797422,
            "data2": 4.687389969647661,
            "data3": 1.0969144225003482,
            "data4": 9.01625707213322
          },
          {
            "name": "Expressionyr4ik0loxt",
            "data1": 3.264174101171079,
            "data2": 8.3386438610818,
            "data3": 3.0285949058526103,
            "data4": 9.798005380819822
          },
          {
            "name": "ExpressionIteratorettvo0obm8h",
            "data1": 6.904599500246808,
            "data2": 9.973209799658406,
            "data3": 2.4275774686003087,
            "data4": 9.278285413245735
          },
          {
            "name": "Fnf48xf9ng9s4",
            "data1": 4.173454118948895,
            "data2": 3.4791826349127195,
            "data3": 8.151751179970878,
            "data4": 4.875624235899043
          },
          {
            "name": "If4k18fa9jb0u",
            "data1": 6.100617480684953,
            "data2": 0.09487691150022044,
            "data3": 2.7147419785870537,
            "data4": 9.709918500813078
          },
          {
            "name": "IsAypw3ki540em",
            "data1": 0.017374258648631007,
            "data2": 5.2739015206454765,
            "data3": 5.103652378049228,
            "data4": 6.252765643765325
          },
          {
            "name": "Literalvmsr8fb8hoc",
            "data1": 9.739027818573256,
            "data2": 8.752464759849758,
            "data3": 6.569963067584874,
            "data4": 7.132831753756096
          },
          {
            "name": "Match8tjmybvljjg",
            "data1": 2.162435971071703,
            "data2": 2.6359446489796845,
            "data3": 6.584837137115,
            "data4": 2.621366287563565
          },
          {
            "name": "Maximumje54m9ogrja",
            "data1": 2.5792370199094385,
            "data2": 2.8900832278215893,
            "data3": 5.729478559438014,
            "data4": 5.308290303050791
          },
          {
            "name": "methods6ce71drijrp",
            "children": [
              {
                "name": "add13yebql49ec",
                "data1": 1.7714973437092774,
                "data2": 4.095831534701472,
                "data3": 5.787403846637263,
                "data4": 1.3618781323443871
              },
              {
                "name": "andvujj1rutv77",
                "data1": 2.005865846186541,
                "data2": 4.004142270462305,
                "data3": 2.331322544903979,
                "data4": 9.09758852406188
              },
              {
                "name": "averageo60rpxl9jy",
                "data1": 1.0426087920870426,
                "data2": 4.947547398821811,
                "data3": 3.607806477291533,
                "data4": 5.786515919264762
              },
              {
                "name": "countpq1jwz6bd6",
                "data1": 5.563119057846194,
                "data2": 7.374788482032951,
                "data3": 4.419581529030506,
                "data4": 8.742262099398483
              },
              {
                "name": "distinct61x7kxuzk43",
                "data1": 4.343904887142983,
                "data2": 3.192188364850714,
                "data3": 8.935205828380507,
                "data4": 1.8268316505581486
              },
              {
                "name": "divxeyjgs39tyl",
                "data1": 3.0256724882562143,
                "data2": 2.039676915012603,
                "data3": 1.810954446159031,
                "data4": 2.2461667998660015
              },
              {
                "name": "eqe9ys2ckzdk7",
                "data1": 8.386858065630925,
                "data2": 6.063413880415735,
                "data3": 2.9788925758592577,
                "data4": 6.669159856095042
              },
              {
                "name": "fno6l05ju3o9",
                "data1": 0.23212634917372435,
                "data2": 5.530521028859616,
                "data3": 4.205654239217462,
                "data4": 5.222608449242645
              },
              {
                "name": "gtjk9c7b3dc6a",
                "data1": 1.148769837137469,
                "data2": 8.022691259440741,
                "data3": 3.8438072188936445,
                "data4": 3.3532000644271767
              },
              {
                "name": "gtecpiyhdf5nlh",
                "data1": 0.7684182068354429,
                "data2": 4.973693518203344,
                "data3": 1.1748967874521208,
                "data4": 7.386573292414096
              },
              {
                "name": "iffbup4nb5hd7p",
                "data1": 6.066947851596761,
                "data2": 7.780046750586019,
                "data3": 2.625520049476294,
                "data4": 4.440652726796434
              },
              {
                "name": "isajfg51yxamo",
                "data1": 7.607718012928736,
                "data2": 2.6430773091835045,
                "data3": 5.0951805869967695,
                "data4": 2.4564308823470533
              },
              {
                "name": "lt5bf7e35onfd",
                "data1": 1.7331816377468667,
                "data2": 0.48085722133328174,
                "data3": 9.780951770599989,
                "data4": 2.2328139618910194
              },
              {
                "name": "ltex2czvt8xk98",
                "data1": 2.8762450889875426,
                "data2": 3.869315767643413,
                "data3": 5.6991830782894475,
                "data4": 8.062867702995064
              },
              {
                "name": "max5f5skpxxq5o",
                "data1": 6.361992935046516,
                "data2": 1.2959350016367346,
                "data3": 4.282712267739949,
                "data4": 9.4593409401882
              },
              {
                "name": "mingpg6fdhgsab",
                "data1": 2.3822374135606497,
                "data2": 2.659077058999848,
                "data3": 4.423352847944973,
                "data4": 6.467596940288844
              },
              {
                "name": "mod55ihbssvsdv",
                "data1": 9.566113129158149,
                "data2": 4.3514769205805095,
                "data3": 0.4288636441792918,
                "data4": 7.105127334100011
              },
              {
                "name": "mulmua8hfoafzr",
                "data1": 7.37224227533995,
                "data2": 4.688058739639685,
                "data3": 7.686808982152988,
                "data4": 4.010912419329167
              },
              {
                "name": "neq008i60wzv3bn4",
                "data1": 8.939488285516196,
                "data2": 2.776029409657786,
                "data3": 7.9448397926162295,
                "data4": 5.588043434719445
              },
              {
                "name": "notw1y9ais9gc",
                "data1": 0.4796321962502973,
                "data2": 1.6190150872533071,
                "data3": 7.0380470341700265,
                "data4": 1.8221841036710678
              },
              {
                "name": "oru6ag6bnlile",
                "data1": 2.761637591300645,
                "data2": 9.652401684905639,
                "data3": 9.734299666402972,
                "data4": 4.999125104699661
              },
              {
                "name": "orderbye2y7w0lal7",
                "data1": 7.695778593766319,
                "data2": 4.167590846269793,
                "data3": 9.905297542345032,
                "data4": 3.5762194631645827
              },
              {
                "name": "ranges118myxib4d",
                "data1": 4.920604593595257,
                "data2": 3.5105182706070392,
                "data3": 6.536884006945778,
                "data4": 0.35865746021071243
              },
              {
                "name": "select7n4gipaciji",
                "data1": 2.454968234572666,
                "data2": 4.336703871708923,
                "data3": 7.218167504521789,
                "data4": 3.045932395257779
              },
              {
                "name": "stddevw0dakwvqzj",
                "data1": 1.356340268403375,
                "data2": 6.370219450870508,
                "data3": 6.759372629668406,
                "data4": 9.312091287334042
              },
              {
                "name": "subjjj4k2at6kk",
                "data1": 0.4966438300683091,
                "data2": 0.5924196705443483,
                "data3": 7.16814330119226,
                "data4": 9.462419364947142
              },
              {
                "name": "sumy3chcanm5ad",
                "data1": 6.752159227839148,
                "data2": 8.351864474954692,
                "data3": 3.3998312912251594,
                "data4": 7.982485062646269
              },
              {
                "name": "updatek3i4rwrit5d",
                "data1": 5.165818577123019,
                "data2": 4.732044196703907,
                "data3": 4.243498748001609,
                "data4": 3.7574269576447072
              },
              {
                "name": "variancekbrjahu5gv",
                "data1": 9.758255983182325,
                "data2": 0.040941262575804944,
                "data3": 7.33725475041663,
                "data4": 4.123410584873848
              },
              {
                "name": "wherenw9ohthii6s",
                "data1": 8.534555552627449,
                "data2": 5.634118805271374,
                "data3": 2.4941330574912075,
                "data4": 8.294032838426519
              },
              {
                "name": "xorlw87x14bwth",
                "data1": 3.365843712983251,
                "data2": 0.7955505295874911,
                "data3": 2.073214386286365,
                "data4": 1.096019461302631
              },
              {
                "name": "_en6wb8f5v2",
                "data1": 8.81793725510081,
                "data2": 5.175152473090097,
                "data3": 9.358194121269797,
                "data4": 4.105556607959595
              }
            ]
          },
          {
            "name": "Minimum4jozpw0rsit",
            "data1": 0.7429520939105384,
            "data2": 3.522670708769397,
            "data3": 2.3252860278697653,
            "data4": 0.24459672965642804
          },
          {
            "name": "Notxhj7wz2ulzl",
            "data1": 4.72740523003975,
            "data2": 5.371744790981987,
            "data3": 1.3194543614486123,
            "data4": 0.00038209526328307307
          },
          {
            "name": "Or8teecut4pys",
            "data1": 9.150657565420218,
            "data2": 2.5907049071843784,
            "data3": 9.228102084112372,
            "data4": 5.653263058393377
          },
          {
            "name": "Queryf3xll4gy0a",
            "data1": 3.977563972630613,
            "data2": 0.3141006422808438,
            "data3": 7.334441385210434,
            "data4": 3.5540271911076986
          },
          {
            "name": "Range4a6bjs80kfm",
            "data1": 6.400048230037001,
            "data2": 5.623706044072475,
            "data3": 7.358845651512275,
            "data4": 6.181413774004824
          },
          {
            "name": "StringUtilr0rs30d457p",
            "data1": 6.1334125332720735,
            "data2": 2.3414570309856684,
            "data3": 3.1206302568493567,
            "data4": 1.1034070395199571
          },
          {
            "name": "Sumh6mvxrptoxl",
            "data1": 5.7179568441057285,
            "data2": 3.2303347305801724,
            "data3": 9.543133061709156,
            "data4": 4.259684303777211
          },
          {
            "name": "Variablegcdfllv8tlv",
            "data1": 6.730995675559521,
            "data2": 2.6971187574501805,
            "data3": 7.7838280278699825,
            "data4": 6.79558466691859
          },
          {
            "name": "Variancemmqomx2zmsa",
            "data1": 5.081927577352902,
            "data2": 8.900376939130517,
            "data3": 2.6474206228805404,
            "data4": 8.884966848748556
          },
          {
            "name": "Xorxbc0n3lhaed",
            "data1": 0.4185487972944898,
            "data2": 5.6989924059932076,
            "data3": 6.904301540170671,
            "data4": 4.110293372173727
          }
        ]
      },
      {
        "name": "scale2rripikrzsy",
        "children": [
          {
            "name": "IScaleMapdpyrlrvmkb7",
            "data1": 8.707783697407734,
            "data2": 5.680952065354421,
            "data3": 5.141218388918717,
            "data4": 1.0250999129585479
          },
          {
            "name": "LinearScalesoq8ygfvt8",
            "data1": 8.972025608461722,
            "data2": 9.883808802554615,
            "data3": 5.128656100780347,
            "data4": 5.952502736671991
          },
          {
            "name": "LogScaleig35yy5lgn",
            "data1": 5.70256506839263,
            "data2": 6.67720799702294,
            "data3": 4.822709640015904,
            "data4": 2.060826344594972
          },
          {
            "name": "OrdinalScaleovdnea5rkcl",
            "data1": 6.606812922577124,
            "data2": 0.7498915137307214,
            "data3": 2.1050363631056395,
            "data4": 0.45144649567257494
          },
          {
            "name": "QuantileScaleuv34v9x48y",
            "data1": 5.485631090529156,
            "data2": 5.625364982127704,
            "data3": 1.26180713670794,
            "data4": 4.518461445965321
          },
          {
            "name": "QuantitativeScalezc1svmkuffd",
            "data1": 3.7573072623893378,
            "data2": 9.888334312754424,
            "data3": 6.5143984576634555,
            "data4": 5.090630867395278
          },
          {
            "name": "RootScaleqbzmoft095p",
            "data1": 3.1605883502220595,
            "data2": 0.9572509547539948,
            "data3": 0.5468590446575573,
            "data4": 2.07209538876427
          },
          {
            "name": "Scalekvx6g6x5tfo",
            "data1": 3.8648932377198224,
            "data2": 1.9067781084217141,
            "data3": 9.280343461344025,
            "data4": 2.762797212419411
          },
          {
            "name": "ScaleTypetlzx72gj5v",
            "data1": 7.905089865639464,
            "data2": 8.006541560037839,
            "data3": 4.15759464264309,
            "data4": 6.00709207478136
          },
          {
            "name": "TimeScale9ldxaz6qmap",
            "data1": 3.5300473395152054,
            "data2": 4.5675280620302185,
            "data3": 7.824081923877628,
            "data4": 5.044582796906125
          }
        ]
      },
      {
        "name": "utile26ecdzipl",
        "children": [
          {
            "name": "Arraysgmlmvkf4yu",
            "data1": 5.315318793521838,
            "data2": 9.036879193547867,
            "data3": 7.064641518089688,
            "data4": 3.4602280044525324
          },
          {
            "name": "Colorsruzn72acveo",
            "data1": 1.444577638788295,
            "data2": 8.235489830725896,
            "data3": 9.05267614373244,
            "data4": 8.929946938390339
          },
          {
            "name": "Datesrso84uicku",
            "data1": 6.94172964977086,
            "data2": 2.777400992270296,
            "data3": 3.015329884026128,
            "data4": 7.96421222754938
          },
          {
            "name": "Displaysih18h0w71si",
            "data1": 9.76126997371051,
            "data2": 6.321771502458037,
            "data3": 1.6040404794528476,
            "data4": 5.664009913215099
          },
          {
            "name": "Filtercvm3tzp8wl",
            "data1": 4.710366949320265,
            "data2": 7.523186878298978,
            "data3": 3.026145841792472,
            "data4": 3.1555611086154083
          },
          {
            "name": "Geometryteugahf2s7s",
            "data1": 7.661802660733239,
            "data2": 0.9534332622704798,
            "data3": 3.1237570354606072,
            "data4": 8.977569161948129
          },
          {
            "name": "heaprmlm07otq6i",
            "children": [
              {
                "name": "FibonacciHeap84ww4a7cfcx",
                "data1": 7.828601008020972,
                "data2": 4.668710416429257,
                "data3": 7.305280288475054,
                "data4": 5.858673007954595
              },
              {
                "name": "HeapNodep5gaico6uk",
                "data1": 2.555683874339332,
                "data2": 4.586661448411503,
                "data3": 2.794885573713703,
                "data4": 6.80184992304138
              }
            ]
          },
          {
            "name": "IEvaluableh6h66ailblm",
            "data1": 3.0799101467540453,
            "data2": 2.651316144425201,
            "data3": 5.3581848752437775,
            "data4": 6.427750747370396
          },
          {
            "name": "IPredicatefshfqw97rc",
            "data1": 4.7857390801962225,
            "data2": 5.533812282973772,
            "data3": 3.5980337227416874,
            "data4": 3.272635951840313
          },
          {
            "name": "IValueProxy6932nqlnmqw",
            "data1": 4.450902528321009,
            "data2": 1.927782396809076,
            "data3": 8.666311423254676,
            "data4": 4.455632345650709
          },
          {
            "name": "mathilygbipiziq",
            "children": [
              {
                "name": "DenseMatrixfeh6mkphyz",
                "data1": 2.5938351115496507,
                "data2": 5.634024910436944,
                "data3": 6.682663562132168,
                "data4": 7.215439824087221
              },
              {
                "name": "IMatrixk6ijn70y6bm",
                "data1": 3.4564888140406773,
                "data2": 6.056031982409045,
                "data3": 5.472337464032121,
                "data4": 0.709617615479466
              },
              {
                "name": "SparseMatrix4hf6q24usvh",
                "data1": 7.933629664242249,
                "data2": 7.983269599669627,
                "data3": 4.172520667954417,
                "data4": 7.753711819850948
              }
            ]
          },
          {
            "name": "Mathslshqnegh8y",
            "data1": 7.348463166646029,
            "data2": 3.177422810674706,
            "data3": 6.308641852445554,
            "data4": 6.79477039802417
          },
          {
            "name": "Orientationd6al2rig9w",
            "data1": 4.864121832101712,
            "data2": 8.490179806850534,
            "data3": 8.183815091173713,
            "data4": 5.679061152797205
          },
          {
            "name": "palettegubx9mwz304",
            "children": [
              {
                "name": "ColorPalettew4rebh2efs",
                "data1": 7.700112012338548,
                "data2": 7.012515559321749,
                "data3": 0.11078800270491296,
                "data4": 6.0836780820793575
              },
              {
                "name": "Palettebs8u3rsz43i",
                "data1": 6.727822766276428,
                "data2": 8.869681350290978,
                "data3": 0.7874926820700889,
                "data4": 4.11521809783744
              },
              {
                "name": "ShapePalette3rds2ofal7s",
                "data1": 7.21026744762637,
                "data2": 3.1008976242374415,
                "data3": 7.220130445137103,
                "data4": 0.23407272160510775
              },
              {
                "name": "data3Palettek2uaaxt1tw8",
                "data1": 0.395879873268548,
                "data2": 0.6342159268402691,
                "data3": 4.494609633134959,
                "data4": 0.9542497623209739
              }
            ]
          },
          {
            "name": "Propertyg8kr7y0kk9v",
            "data1": 9.72612951598085,
            "data2": 7.112473378890107,
            "data3": 4.0372562015554,
            "data4": 3.943754977614553
          },
          {
            "name": "Shapesx3lbe6pcsz",
            "data1": 8.756818740877149,
            "data2": 1.732844763592001,
            "data3": 7.85744527315339,
            "data4": 9.974777152653528
          },
          {
            "name": "Sortzfb0kolozo",
            "data1": 5.8701004713024645,
            "data2": 9.11124428593498,
            "data3": 1.2128327353940787,
            "data4": 8.495081086884287
          },
          {
            "name": "Statsp5gewf1055",
            "data1": 5.882911872020687,
            "data2": 7.086684110488928,
            "data3": 4.640275718021502,
            "data4": 8.240998297011778
          },
          {
            "name": "Stringshingohuzsu4",
            "data1": 3.343091554577509,
            "data2": 1.9210450937543402,
            "data3": 9.337527297716058,
            "data4": 4.787843346963961
          }
        ]
      },
      {
        "name": "vislc2ca7p6qp",
        "children": [
          {
            "name": "axissacw2pl9r8i",
            "children": [
              {
                "name": "Axes5hpr3xpcagy",
                "data1": 1.4935770278075846,
                "data2": 9.282209381911384,
                "data3": 1.3056043270597257,
                "data4": 6.91284674472892
              },
              {
                "name": "Axis0xw7dw5s8vn",
                "data1": 3.6865008446747707,
                "data2": 1.6172279200499822,
                "data3": 2.1239900059468724,
                "data4": 8.99937728876407
              },
              {
                "name": "AxisGridLinedjfd8lsmbmr",
                "data1": 5.862839897880539,
                "data2": 4.470481206396648,
                "data3": 6.769433832481223,
                "data4": 2.4798080002871004
              },
              {
                "name": "AxisLabelogdvm32kug",
                "data1": 8.60513085051722,
                "data2": 2.311027034357661,
                "data3": 4.232420423147969,
                "data4": 2.035657484644596
              },
              {
                "name": "CartesianAxeskuhpiix8nr",
                "data1": 4.983132991195217,
                "data2": 7.081977383243987,
                "data3": 9.62725255002478,
                "data4": 2.8438034576867173
              }
            ]
          },
          {
            "name": "controlslt4eqakyni",
            "children": [
              {
                "name": "AnchorControl5ozzazi5efo",
                "data1": 3.3935410120127036,
                "data2": 1.8496089487390877,
                "data3": 3.955878918797893,
                "data4": 5.847335130855514
              },
              {
                "name": "ClickControlwqcck62l35p",
                "data1": 4.981531042992644,
                "data2": 9.91943548201295,
                "data3": 3.9219445861983555,
                "data4": 0.03921761759737552
              },
              {
                "name": "Control2pgekp4hcp8",
                "data1": 9.676508638396097,
                "data2": 4.879772579985879,
                "data3": 0.37760288244926804,
                "data4": 7.335298531606568
              },
              {
                "name": "ControlList6s87zgvor0v",
                "data1": 3.3290704165379212,
                "data2": 0.1411300198308201,
                "data3": 8.346832948025662,
                "data4": 4.850656123799165
              },
              {
                "name": "DragControlyvgtm36o64",
                "data1": 0.4141296943833469,
                "data2": 9.518711486762427,
                "data3": 7.083988680823177,
                "data4": 1.3865132815725696
              },
              {
                "name": "ExpandControlfjvizyroh0m",
                "data1": 6.38246950013699,
                "data2": 3.754310745513418,
                "data3": 7.047775521108334,
                "data4": 0.2561491605478344
              },
              {
                "name": "HoverControlnau531a05e",
                "data1": 1.4890282917404771,
                "data2": 0.22081260544505277,
                "data3": 9.29538918209683,
                "data4": 4.475871941345457
              },
              {
                "name": "IControlh4gd9fxdwip",
                "data1": 7.174795827836307,
                "data2": 9.427927692549034,
                "data3": 3.1746449376538957,
                "data4": 5.709833983697933
              },
              {
                "name": "PanZoomControlrp5ltkoopy",
                "data1": 7.579125141624755,
                "data2": 1.8405450566117918,
                "data3": 2.6054941091986055,
                "data4": 7.483453570924839
              },
              {
                "name": "SelectionControllp8actmqgmd",
                "data1": 7.421473746022102,
                "data2": 8.181459236497679,
                "data3": 0.4120252972886327,
                "data4": 8.958736034799244
              },
              {
                "name": "TooltipControlk28fi6lm1l",
                "data1": 3.646345899056313,
                "data2": 3.1807282635628757,
                "data3": 2.951342945881203,
                "data4": 3.450310869692129
              }
            ]
          },
          {
            "name": "datad7low9onoug",
            "children": [
              {
                "name": "Data30arux5z9tm",
                "data1": 6.642114044561344,
                "data2": 7.366864175753847,
                "data3": 2.621375150184941,
                "data4": 5.847502220284841
              },
              {
                "name": "DataListj4fnp95f2qb",
                "data1": 3.2099360213071697,
                "data2": 2.213907414538299,
                "data3": 5.904509059366594,
                "data4": 2.318518221378269
              },
              {
                "name": "DataSpriteh18fsl7ju2",
                "data1": 1.361973732406301,
                "data2": 9.210619498164066,
                "data3": 9.702363015165734,
                "data4": 7.2260037123742915
              },
              {
                "name": "EdgeSpritebi81aouk2yd",
                "data1": 5.862455300005168,
                "data2": 1.9772038681173436,
                "data3": 8.141396231652376,
                "data4": 6.957749468239342
              },
              {
                "name": "NodeSpriteczx2bqb3gso",
                "data1": 5.469972498884812,
                "data2": 9.728047254673907,
                "data3": 9.9652611519589,
                "data4": 8.746616426766362
              },
              {
                "name": "rendervsjab96krp",
                "data1": 0,
                "data2": 0,
                "children": [
                  {
                    "name": "ArrowTypecr97yhkkwaw",
                    "data1": 3.6881198852339936,
                    "data2": 5.604572216701374,
                    "data3": 6.178176037695575,
                    "data4": 1.680950764525981
                  },
                  {
                    "name": "EdgeRenderer5zke873qwhj",
                    "data1": 7.844720172839143,
                    "data2": 1.2098356542545883,
                    "data3": 7.017079067221221,
                    "data4": 4.713004090778311
                  },
                  {
                    "name": "IRenderernbthqbs6vv8",
                    "data1": 5.398827538237247,
                    "data2": 3.816572671633934,
                    "data3": 5.123594495206666,
                    "data4": 5.566052239811048
                  },
                  {
                    "name": "ShapeRenderernoznhipavjl",
                    "data1": 0.43443087931797686,
                    "data2": 1.362825652422589,
                    "data3": 1.7152084189264796,
                    "data4": 7.803930471213158
                  }
                ]
              },
              {
                "name": "ScaleBinding5i72z4pn8ny",
                "data1": 7.39636499916778,
                "data2": 1.4357964433574617,
                "data3": 5.398712667711423,
                "data4": 5.006094458412535
              },
              {
                "name": "Treedf16g82xxh4",
                "data1": 5.357575702590596,
                "data2": 5.819892804043194,
                "data3": 8.472245705994407,
                "data4": 0.8035826923021585
              },
              {
                "name": "TreeBuilderr8ma50094d",
                "data1": 1.1880513258841157,
                "data2": 6.628730502181806,
                "data3": 9.039043785133195,
                "data4": 0.20747427844561306
              }
            ]
          },
          {
            "name": "eventsfdv7sb4792f",
            "children": [
              {
                "name": "DataEventy4kvpmha1",
                "data1": 2.2002839605483895,
                "data2": 2.962755535895847,
                "data3": 2.7259193385661167,
                "data4": 0.6114839708756161
              },
              {
                "name": "SelectionEventb93qhto4vrk",
                "data1": 8.531160951529804,
                "data2": 6.889604353991219,
                "data3": 0.482701863082074,
                "data4": 4.51868018031854
              },
              {
                "name": "TooltipEventh3m58zewp0s",
                "data1": 4.189537385195506,
                "data2": 0.7087855905761435,
                "data3": 2.6661550563751106,
                "data4": 5.158262819585675
              },
              {
                "name": "VisualizationEvent4z4ac1ussft",
                "data1": 2.72092061478268,
                "data2": 5.212342336882523,
                "data3": 9.22547848965028,
                "data4": 6.064879998670155
              }
            ]
          },
          {
            "name": "legend37hob6gbrk5",
            "children": [
              {
                "name": "Legend8wr0wa4e2di",
                "data1": 7.9140807961888795,
                "data2": 7.653311273963611,
                "data3": 7.009188002214469,
                "data4": 7.890497652547781
              },
              {
                "name": "LegendItemng0ib6k3p78",
                "data1": 5.40798257894338,
                "data2": 9.82536114249687,
                "data3": 3.5408790203261056,
                "data4": 0.11387224109130079
              },
              {
                "name": "LegendRangel3jclla47s8",
                "data1": 9.962975009519731,
                "data2": 6.853584568268952,
                "data3": 6.313714880745421,
                "data4": 7.582238597673465
              }
            ]
          },
          {
            "name": "operatorw743week478",
            "children": [
              {
                "name": "distortionv0785vp8m2",
                "children": [
                  {
                    "name": "BifocalDistortion9d1fy31wa46",
                    "data1": 6.73756305147938,
                    "data2": 4.328744758345956,
                    "data3": 7.936326881672164,
                    "data4": 0.5381389650280787
                  },
                  {
                    "name": "Distortionvf36z5ci5as",
                    "data1": 4.471157237261088,
                    "data2": 6.038456034126178,
                    "data3": 0.09383870436990087,
                    "data4": 4.9999179848139255
                  },
                  {
                    "name": "FisheyeDistortion4sn81za2eau",
                    "data1": 9.01809160844532,
                    "data2": 0.18050425258919622,
                    "data3": 9.061323746382225,
                    "data4": 7.268556258823184
                  }
                ]
              },
              {
                "name": "encoder8d2yjrv1zq6",
                "children": [
                  {
                    "name": "ColorEncoderq05s8xy7x0j",
                    "data1": 5.699939584043302,
                    "data2": 1.5247391416542813,
                    "data3": 3.1923279276758674,
                    "data4": 1.1170464949015382
                  },
                  {
                    "name": "Encodermh9uhg6isr",
                    "data1": 8.046316536107105,
                    "data2": 9.867070590515295,
                    "data3": 1.8819429690155922,
                    "data4": 3.8857869405782757
                  },
                  {
                    "name": "PropertyEncodero07on84it1q",
                    "data1": 0.2797528309487843,
                    "data2": 5.6600178230681,
                    "data3": 0.6923442006187613,
                    "data4": 5.577090400310824
                  },
                  {
                    "name": "ShapeEncodercm931bx247",
                    "data1": 9.147780611876165,
                    "data2": 7.659973892921762,
                    "data3": 1.8122144743588104,
                    "data4": 9.926655293158111
                  },
                  {
                    "name": "data3Encoderna5r2vf7h3",
                    "data1": 6.587319448011602,
                    "data2": 2.8814396084200706,
                    "data3": 4.860959156421709,
                    "data4": 8.613055730882845
                  }
                ]
              },
              {
                "name": "filterk8vaj5vabj",
                "children": [
                  {
                    "name": "FisheyeTreeFilter94w991o85ov",
                    "data1": 8.905285858413013,
                    "data2": 2.959301010905311,
                    "data3": 2.862004593992826,
                    "data4": 4.656443076309195
                  },
                  {
                    "name": "GraphDistanceFilterm5akvb637hp",
                    "data1": 5.130744669620398,
                    "data2": 1.2526587423895161,
                    "data3": 5.474131940785344,
                    "data4": 7.584953161349533
                  },
                  {
                    "name": "VisibilityFilter8fz6aewc6c",
                    "data1": 1.6263019634765765,
                    "data2": 7.193935349623275,
                    "data3": 3.3553566819109175,
                    "data4": 4.0812462301767525
                  }
                ]
              },
              {
                "name": "IOperatorp10um5320ec",
                "data1": 6.263980565454749,
                "data2": 2.171306568768991,
                "data3": 1.0050619648283174,
                "data4": 0.014969214412067496
              },
              {
                "name": "labela2b4inxitwt",
                "children": [
                  {
                    "name": "Labeleriqple7zjnzh",
                    "data1": 2.1350967239289877,
                    "data2": 1.7548429468508844,
                    "data3": 6.170727905001917,
                    "data4": 7.6472715627802135
                  },
                  {
                    "name": "RadialLabeler7rlahl3h9bj",
                    "data1": 7.378237041998049,
                    "data2": 3.244248924316324,
                    "data3": 4.852662588818243,
                    "data4": 8.580226702287836
                  },
                  {
                    "name": "StackedAreaLabelereq9qmydtqql",
                    "data1": 6.763947135240991,
                    "data2": 7.030381964197253,
                    "data3": 8.047210442000315,
                    "data4": 1.7174911106865296
                  }
                ]
              },
              {
                "name": "layouthgg6l0wsyfb",
                "children": [
                  {
                    "name": "AxisLayoutm2ms9ccsu1",
                    "data1": 2.2454590048153906,
                    "data2": 0.12278504885087874,
                    "data3": 1.1321067171920804,
                    "data4": 4.683967400879057
                  },
                  {
                    "name": "BundledEdgeRouterx8tqm3x2oxi",
                    "data1": 7.875608075607302,
                    "data2": 9.557162869327314,
                    "data3": 8.964328401742218,
                    "data4": 3.718646015627278
                  },
                  {
                    "name": "CircleLayoutpwj9ns2uzro",
                    "data1": 8.045573689100461,
                    "data2": 6.5857989008651625,
                    "data3": 5.594632939416151,
                    "data4": 0.7381323904876338
                  },
                  {
                    "name": "CirclePackingLayoutzgenohi9e97",
                    "data1": 3.815377390436709,
                    "data2": 6.230707066788747,
                    "data3": 5.322444465161769,
                    "data4": 7.042554911783955
                  },
                  {
                    "name": "DendrogramLayoutoddx66yqi7d",
                    "data1": 0.872380814352378,
                    "data2": 6.418611038043188,
                    "data3": 4.689716039753641,
                    "data4": 7.43742273923268
                  },
                  {
                    "name": "ForceDirectedLayout9st08debjvg",
                    "data1": 4.202422162674934,
                    "data2": 1.6233720726849006,
                    "data3": 7.462873366337993,
                    "data4": 3.9330070617257196
                  },
                  {
                    "name": "IcicleTreeLayout4w9s97kh0n",
                    "data1": 7.401352968195075,
                    "data2": 5.976220804525446,
                    "data3": 8.705069867547028,
                    "data4": 1.670116711668067
                  },
                  {
                    "name": "IndentedTreeLayoutz9gnh9v9vv",
                    "data1": 8.31853940419734,
                    "data2": 1.3169584400448877,
                    "data3": 2.3437784781139888,
                    "data4": 4.526175850274073
                  },
                  {
                    "name": "Layout32c7g44gmko",
                    "data1": 5.391744981699863,
                    "data2": 2.305468613562125,
                    "data3": 8.646686654490466,
                    "data4": 8.395511268746352
                  },
                  {
                    "name": "NodeLinkTreeLayout87b7bplup74",
                    "data1": 3.0424282921169246,
                    "data2": 8.485175280912314,
                    "data3": 8.613472698477935,
                    "data4": 9.616656777488204
                  },
                  {
                    "name": "PieLayoutbc8mvvzcqnp",
                    "data1": 1.0642913594881058,
                    "data2": 3.7963219027478594,
                    "data3": 2.9020626241744365,
                    "data4": 7.369828138898881
                  },
                  {
                    "name": "RadialTreeLayout6yg5orfxwdp",
                    "data1": 2.674499782930251,
                    "data2": 0.24281802849497544,
                    "data3": 9.697122666397831,
                    "data4": 5.5932156597403075
                  },
                  {
                    "name": "RandomLayoutj669ejj1dma",
                    "data1": 4.97892697776734,
                    "data2": 8.997922404732911,
                    "data3": 5.184383369266532,
                    "data4": 3.635266883819016
                  },
                  {
                    "name": "StackedAreaLayoutiio9f2ig6s8",
                    "data1": 7.973816895607646,
                    "data2": 4.202312783254516,
                    "data3": 7.286802767884067,
                    "data4": 4.164644341664269
                  },
                  {
                    "name": "TreeMapLayoutx374snzc0rr",
                    "data1": 9.62244612575344,
                    "data2": 6.354851343171802,
                    "data3": 6.607182523904237,
                    "data4": 9.311390879476312
                  }
                ]
              },
              {
                "name": "Operatorbfvs98yr2d9",
                "data1": 0.6229159712558302,
                "data2": 0.9856757154742922,
                "data3": 1.5720364210341473,
                "data4": 0.7060824803601793
              },
              {
                "name": "OperatorListyuk3i48oal9",
                "data1": 6.9426704611810806,
                "data2": 6.592648448477963,
                "data3": 5.649366115884656,
                "data4": 2.6274025530727236
              },
              {
                "name": "OperatorSequencebt1ceopyo4e",
                "data1": 6.036457076985721,
                "data2": 7.197827801818658,
                "data3": 6.4191694502945085,
                "data4": 0.6561055210523663
              },
              {
                "name": "OperatorSwitchn75o97lvtbp",
                "data1": 2.9312305747749594,
                "data2": 0.9232375433396139,
                "data3": 7.02181946075786,
                "data4": 0.8549559803095954
              },
              {
                "name": "SortOperatorf4bcik1kqf",
                "data1": 1.8077117541778709,
                "data2": 4.49023016179952,
                "data3": 7.3328314479688395,
                "data4": 0.843211257370186
              }
            ]
          },
          {
            "name": "Visualizationugaz47p3c8",
            "data1": 5.2166717235840405,
            "data2": 8.193803158727155,
            "data3": 5.005044903918993,
            "data4": 7.0890518921887855
          }
        ]
      }
    ]
}