name,parent_name,surface_area_km2,population_in_thousands_2017,GDP_Usmillion,sex_ratio_m_per_100_f_2017,urban_population_percentage_of_total_population,threatened_species_number,CO2_emission_estimates_million_tons_per_capita
world,,0,0,0,0,0,0,0
Oceania,world,0,0,0,0,0,0,0
Africa,world,0,0,0,0,0,0,0
Asia,world,0,0,0,0,0,0,0
Europe,world,0,0,0,0,0,0,0
America,world,0,0,0,0,0,0,0
Caribbean,America,0,0,0,0,0,0,0
CentralAmerica,America,0,0,0,0,0,0,0
NorthernAmerica,America,0,0,0,0,0,0,0
SouthAmerica,America,0,0,0,0,0,0,0
EasternEurope,Europe,0,0,0,0,0,0,0
NorthernEurope,Europe,0,0,0,0,0,0,0
SouthernEurope,Europe,0,0,0,0,0,0,0
WesternEurope,Europe,0,0,0,0,0,0,0
EasternAsia,Asia,0,0,0,0,0,0,0
SouthernAsia,Asia,0,0,0,0,0,0,0
WesternAsia,Asia,0,0,0,0,0,0,0
South-easternAsia,Asia,0,0,0,0,0,0,0
CentralAsia,Asia,0,0,0,0,0,0,0
WesternAfrica,Africa,0,0,0,0,0,0,0
SouthernAfrica,Africa,0,0,0,0,0,0,0
EasternAfrica,Africa,0,0,0,0,0,0,0
MiddleAfrica,Africa,0,0,0,0,0,0,0
NorthernAfrica,Africa,0,0,0,0,0,0,0
Melanesia,Oceania,0,0,0,0,0,0,0
Micronesia,Oceania,0,0,0,0,0,0,0
Polynesia,Oceania,0,0,0,0,0,0,0
Afghanistan,SouthernAsia,652864,35530,20270,106.3,26.7,2.1,63
Albania,SouthernEurope,28748,2930,11541,101.9,57.4,28.2,84
Algeria,NorthernAfrica,2381741,41318,164779,102,70.7,0.8,5900
American Samoa,Polynesia,199,56,0,103.6,87.2,87.9,0
Andorra,SouthernEurope,468,77,2812,102.3,85.1,34,1
Angola,MiddleAfrica,1246700,29784,117955,96.2,44.1,46.5,3902
Anguilla,Caribbean,91,15,320,97.6,100,61.1,0
Antigua and Barbuda,Caribbean,442,102,1356,92.3,23.8,22.3,0
Argentina,SouthAmerica,2780400,44271,632343,95.9,91.8,10,3167
Armenia,WesternAsia,29743,2930,10529,88.8,62.7,11.7,48
Aruba,Caribbean,180,105,2702,90.4,41.5,2.3,1
Australia,Oceania,7692060,24451,1230859,99.3,89.4,16.2,15282
Austria,WesternEurope,83871,8736,376967,96.2,66,46.9,505
Azerbaijan,WesternAsia,86600,9828,53049,99.3,54.6,13.5,2459
Bahamas,Caribbean,13940,395,8854,95.9,82.9,51.4,0
Bahrain,WesternAsia,771,1493,31126,168.3,88.8,0.8,961
Bangladesh,SouthernAsia,147570,164670,194466,101.7,34.3,11,1438
Barbados,Caribbean,431,286,4385,91.9,31.5,14.7,2
Belarus,EasternEurope,207600,9468,54609,87,76.7,42.5,155
Belgium,WesternEurope,30528,11429,455107,97.3,97.9,22.6,520
Belize,CentralAmerica,22966,375,1721,99.2,44,60.1,9
Benin,WesternAfrica,114763,11176,8476,99.5,44,38.7,96
Bermuda,NorthernAmerica,53,61,5853,91.4,100,20,1
Bhutan,SouthernAsia,38394,808,2074,113.1,38.6,72,75
Bolivia (Plurinational State of),SouthAmerica,1098581,11052,32998,100.2,68.5,50.8,962
Bonaire Sint Eustatius and Saba,Caribbean,294,25,0,0,74.7,0,0
Bosnia and Herzegovina,SouthernEurope,51209,3507,16251,96.4,39.8,42.7,252
Botswana,SouthernAfrica,582000,2292,14391,97.7,57.4,19.3,47
Brazil,SouthAmerica,8515767,209288,1772591,96.6,85.7,59.2,10948
British Virgin Islands,Caribbean,151,31,908,97.1,46.2,24.1,0
Brunei Darussalam,South-easternAsia,5765,429,12930,106,77.2,72.1,679
Bulgaria,EasternEurope,111002,7085,48953,94.6,73.9,35.1,474
Burkina Faso,WesternAfrica,272967,19193,11065,99.5,29.9,19.8,123
Burundi,EasternAfrica,27830,10864,2735,96.9,12.1,10.6,56
Cabo Verde,WesternAfrica,4033,546,1603,99.3,65.5,22.1,2
Cambodia,South-easternAsia,181035,16005,18050,95.3,20.7,54.3,178
Cameroon,MiddleAfrica,475650,24054,28416,100.2,54.4,40.3,408
Canada,NorthernAmerica,9984670,36624,1552808,98.5,81.8,38.2,19276
Cayman Islands,Caribbean,264,62,3726,100.4,100,52.9,0
Central African Republic,MiddleAfrica,622984,4659,1633,97.3,40,35.6,19
Chad,MiddleAfrica,1284000,14900,10009,100.2,22.5,4,288
Channel Islands,NorthernEurope,180,165,0,98.4,31.5,4.2,0
Chile,SouthAmerica,756102,18055,240796,98.2,89.5,23.4,540
China Hong Kong SAR,EasternAsia,1106,7365,309236,85.1,100,0,0
China Macao SAR,EasternAsia,30,623,46178,92.3,100,0,2
China,EasternAsia,9600000,1409517,11158457,106.3,55.6,22,101394
Colombia,SouthAmerica,1141748,49066,292080,96.8,76.4,52.8,5380
Comoros,EasternAfrica,2235,814,1079,101.8,28.3,20.1,3
Congo,MiddleAfrica,342000,5261,8493,100.1,65.4,65.4,648
Cook Islands,Polynesia,236,17,294,97.4,74.5,62.9,0
Costa Rica,CentralAmerica,51100,4906,52958,100.1,76.8,53.4,110
Croatia,SouthernEurope,56594,4189,48676,93.1,59,34.3,182
Cuba,Caribbean,109884,11485,87206,100.1,77.1,30.2,212
Cyprus,WesternAsia,9251,1180,19561,100.2,66.9,18.7,5
Czechia,EasternEurope,78868,10618,185156,96.7,73,34.5,1221
Democratic Peoples Republic of Korea,EasternAsia,120538,25491,16283,95.7,60.9,42.8,871
Democratic Republic of the Congo,MiddleAfrica,2344858,81340,37569,99.6,42.5,67.4,1179
Denmark,NorthernEurope,42921,5734,301308,99,87.7,14.4,666
Djibouti,EasternAfrica,23200,957,1737,100.7,77.3,0.2,3
Dominica,Caribbean,750,74,512,103,69.5,58.1,0
Dominican Republic,Caribbean,48671,10767,67103,99.2,79,40.4,28
Ecuador,SouthAmerica,257217,16625,100177,99.9,63.7,50.8,1247
Egypt,NorthernAfrica,1002000,97553,315917,102.3,43.1,0.1,3509
El Salvador,CentralAmerica,21041,6378,25850,88.5,66.7,13,86
Equatorial Guinea,MiddleAfrica,28052,1268,13812,124,39.9,56.3,841
Eritrea,EasternAfrica,117600,5069,4783,100.4,22.6,15,27
Estonia,NorthernEurope,45227,1310,22460,88.2,67.5,52.7,242
Ethiopia,EasternAfrica,1104300,104957,59917,99.7,19.5,12.5,1308
Falkland Islands (Malvinas),SouthAmerica,12173,3,0,110.5,76.2,0,0
Faroe Islands,NorthernEurope,1393,49,0,107.2,42,0.1,1
Fiji,Melanesia,18272,906,4391,103.1,53.7,55.4,8
Finland,NorthernEurope,338440,5523,231960,97.2,84.2,73.1,757
France,WesternEurope,551500,64980,2418946,96.7,79.5,30.8,5694
French Guiana,SouthAmerica,83534,283,0,100,84.4,98.9,3
French Polynesia,Polynesia,4000,283,5135,103.7,55.9,42.3,1
Gabon,MiddleAfrica,267668,2025,13735,105.6,87.2,88.5,559
Gambia,WesternAfrica,11295,2101,942,98,59.6,48.1,7
Georgia,WesternAsia,69700,3912,13965,91.4,53.6,40.6,61
Germany,WesternEurope,357376,82114,3363600,97,75.3,32.7,5004
Ghana,WesternAfrica,238537,28834,37156,99.3,54,40.9,410
Gibraltar,SouthernEurope,6,35,0,101.8,100,0,0
Greece,SouthernEurope,131957,11160,194860,96.9,78,31.2,368
Greenland,NorthernAmerica,2166086,56,2078,112.1,86.4,0,2
Grenada,Caribbean,345,108,954,100.9,35.6,50,0
Guadeloupe,Caribbean,1705,450,0,86.4,98.4,43,5
Guam,Micronesia,549,164,0,102.6,94.5,46.3,0
Guatemala,CentralAmerica,108889,16914,63794,96.9,51.6,33.4,327
Guinea-Bissau,WesternAfrica,36125,1861,978,96.9,49.3,70.5,25
Guinea,WesternAfrica,245857,12717,8875,100.6,37.2,26,113
Guyana,SouthAmerica,214969,778,3282,101.9,28.6,84,7
Haiti,Caribbean,27750,10981,8501,97.8,58.6,3.5,136
Holy See,SouthernEurope,0,1,0,219.2,100,0,0
Honduras,CentralAmerica,112492,9265,20365,99.4,54.7,42.1,105
Hungary,EasternEurope,93024,9722,121715,90.7,71.2,22.8,423
Iceland,NorthernEurope,103000,335,16780,100.7,94.1,0.5,284
India,SouthernAsia,3287263,1339180,2116239,107.6,32.7,23.7,23103
Indonesia,South-easternAsia,1910931,263991,861934,101.4,53.7,50.6,19481
Iran (Islamic Republic of),SouthernAsia,1628750,81163,398563,101.2,73.4,6.6,13291
Iraq,WesternAsia,435052,38275,164234,102.5,69.5,1.9,6744
Ireland,NorthernEurope,69797,4762,283716,98.4,63.2,10.9,84
Isle of Man,NorthernEurope,572,84,0,98.2,52.2,6.1,0
Israel,WesternAsia,22072,8322,299413,98.7,92.1,7.5,313
Italy,SouthernEurope,302073,59360,1821580,95.1,69,31.4,1539
Jamaica,Caribbean,10990,2890,14262,99,54.8,31,8
Japan,EasternAsia,377930,127484,4383076,95.4,93.5,68.5,1114
Jordan,WesternAsia,89318,9702,37517,102.6,83.7,1.1,7
Kazakhstan,CentralAsia,2724902,18204,181754,93.9,53.2,1.2,7091
Kenya,EasternAfrica,591958,49700,63399,98.8,25.6,7.7,750
Kiribati,Micronesia,726,116,162,97.3,44.3,15,0
Kuwait,WesternAsia,17818,4136,114054,134.9,98.3,0.4,6941
Kyrgyzstan,CentralAsia,199949,6045,6572,98.4,35.7,3.4,80
Lao Peoples Democratic Republic,South-easternAsia,236800,6858,12585,99.5,38.6,80.5,72
Latvia,NorthernEurope,64573,1950,27004,84.9,67.4,54,108
Lebanon,WesternAsia,10452,6082,50149,100.6,87.8,13.4,7
Lesotho,SouthernAfrica,30355,2233,2008,94.4,27.3,1.6,31
Liberia,WesternAfrica,111369,4732,2053,101.8,49.7,43.7,73
Libya,NorthernAfrica,1676198,6375,34457,101.7,78.6,0.1,1505
Liechtenstein,WesternEurope,160,38,6361,98.4,14.3,43.1,1
Lithuania,NorthernEurope,65286,2890,41402,85.4,66.5,34.8,74
Luxembourg,WesternEurope,2586,584,56802,101,90.2,33.5,6
Madagascar,EasternAfrica,587295,25571,9739,99.5,35.1,21.5,129
Malawi,EasternAfrica,118484,18622,6420,98.2,16.3,33.6,89
Malaysia,South-easternAsia,330323,31624,296284,106.7,74.7,67.5,3738
Maldives,SouthernAsia,300,436,3435,131.8,45.5,3.3,0
Mali,WesternAfrica,1240192,18542,13100,100.2,39.9,3.9,55
Malta,SouthernEurope,315,431,9747,100.9,95.4,1.1,1
Marshall Islands,Micronesia,181,53,183,104.5,72.7,70.2,0
Martinique,Caribbean,1128,385,0,83.5,88.9,45.8,1
Mauritania,WesternAfrica,1030700,4420,5023,101.6,59.9,0.2,31
Mauritius,EasternAfrica,1969,1265,11511,97.9,39.7,19,10
Mayotte,EasternAfrica,374,253,0,96.7,47,16.1,0
Mexico,CentralAmerica,1964375,129163,1140724,99.2,79.2,34,8514
Micronesia (Federated States of),Micronesia,702,106,315,105.1,22.4,91.8,0
Monaco,WesternEurope,2,39,6258,94.7,100,0,0
Mongolia,EasternAsia,1564116,3076,11758,97.9,72,8.1,677
Montenegro,SouthernEurope,13812,629,4020,97.4,64,61.5,29
Montserrat,Caribbean,103,5,59,106,9,25,0
Morocco,NorthernAfrica,446550,35740,100359,98.1,60.2,12.6,78
Mozambique,EasternAfrica,799380,29669,14806,95.5,32.2,48.5,779
Myanmar,South-easternAsia,676577,53371,62601,95.5,34.1,45.3,1078
Namibia,SouthernAfrica,824116,2534,11491,94.7,46.7,8.5,19
Nauru,Micronesia,21,11,189,101.9,100,0,0
Nepal,SouthernAsia,147181,29305,20658,94.3,18.6,25.4,451
Netherlands,WesternEurope,41542,17036,750318,99,90.5,11.1,2447
New Caledonia,Melanesia,18575,276,8937,101.5,70.2,45.9,1
New Zealand,Oceania,268107,4706,173417,96.7,86.3,38.6,783
Nicaragua,CentralAmerica,130373,6218,12693,97.2,58.8,25.9,91
Niger,WesternAfrica,1267000,21477,7143,100.6,18.7,0.9,101
Nigeria,WesternAfrica,923768,190886,494583,102.7,47.8,8.1,10851
Niue,Polynesia,260,2,0,100,42.5,70,0
Northern Mariana Islands,Micronesia,457,55,0,107.1,89.2,64.5,0
Norway,NorthernEurope,386194,5305,386578,101.8,80.5,33.2,8204
Oman,WesternAsia,309500,4636,69832,192.8,77.6,0,3101
Pakistan,SouthernAsia,796095,197016,266458,105.6,38.8,2,2202
Palau,Micronesia,459,22,258,113.3,87.1,87.6,0
Panama,CentralAmerica,75320,4099,52132,100.4,66.6,62.3,31
Papua New Guinea,Melanesia,462840,8251,21315,103.5,13,74.1,114
Paraguay,SouthAmerica,406752,6811,27714,102.9,59.7,39.4,325
Peru,SouthAmerica,1285216,32166,190428,99.8,78.6,57.9,1020
Philippines,South-easternAsia,300000,104918,292449,101.3,44.4,26.2,991
Poland,EasternEurope,312679,38171,477066,93.4,60.5,30.7,2819
Portugal,SouthernEurope,92226,10330,199122,89.8,63.5,34.9,250
Puerto Rico,Caribbean,8868,3663,102906,92.6,93.6,55.5,1
Qatar,WesternAsia,11607,2639,164641,301.2,99.2,0,9166
Republic of Korea,EasternAsia,100284,50982,1377873,100.2,82.5,63.5,2023
Republic of Moldova,EasternEurope,33846,4051,6475,92.2,45,12.3,15
Romania,EasternEurope,238391,19679,177956,94,54.6,29.5,1109
Russian Federation,EasternEurope,17098246,143990,1326016,86.8,74,49.8,54829
Rwanda,EasternAfrica,26338,12208,8096,96.2,28.8,19.2,84
Saint Helena,WesternAfrica,308,4,0,0,39.4,5.1,0
Saint Kitts and Nevis,Caribbean,261,55,876,97,32,42.3,0
Saint Lucia,Caribbean,539,179,1450,95.9,18.5,33.4,0
Saint Pierre and Miquelon,NorthernAmerica,242,6,0,98.2,90.4,12.3,0
Saint Vincent and the Grenadines,Caribbean,389,110,738,101.7,50.6,69.2,0
Samoa,Polynesia,2842,196,774,106.6,19.1,60.4,2
San Marino,SouthernEurope,61,33,1565,94.9,94.2,0,0
Sao Tome and Principe,MiddleAfrica,964,204,334,99.2,65.1,55.8,1
Saudi Arabia,WesternAsia,2206714,32938,653219,132.9,83.1,0.5,25904
Senegal,WesternAfrica,196712,15851,13633,96.6,43.7,43.2,77
Serbia,SouthernEurope,88499,8791,37160,95.6,55.6,31.1,393
Seychelles,EasternAfrica,457,95,1363,97.2,53.9,88.4,0
Sierra Leone,WesternAfrica,72300,7557,4483,98.1,39.9,41.3,53
Singapore,South-easternAsia,719,5709,292734,97.7,100,23.1,27
Sint Maarten (Dutch part),Caribbean,34,40,1094,95.7,100,0,0
Slovakia,EasternEurope,49035,5448,87268,94.6,53.6,40.3,264
Slovenia,SouthernEurope,20273,2080,42777,98.6,49.7,62,154
Solomon Islands,Melanesia,28896,611,1075,103.4,22.3,78.3,3
Somalia,EasternAfrica,637657,14742,1559,99.3,39.6,10.3,129
South Africa,SouthernAfrica,1221037,56717,314571,96.4,64.8,7.6,7102
South Sudan,EasternAfrica,658841,12576,13167,100.4,18.8,0,337
Spain,SouthernEurope,505944,46354,1192955,96.2,79.6,36.8,1432
Sri Lanka,SouthernAsia,65610,20877,82316,92.5,18.4,33.1,179
State of Palestine,WesternAsia,6020,4921,12677,102.9,75.3,1.5,9
Sudan,NorthernAfrica,1886068,40533,79546,99.9,33.8,0,682
Suriname,SouthAmerica,163820,563,4879,100.7,66,98.3,44
Swaziland,SouthernAfrica,17363,1367,4133,93.9,21.3,33.8,39
Sweden,NorthernEurope,438574,9911,495694,100.2,85.8,68.9,1428
Switzerland,WesternEurope,41291,8476,670790,98.2,73.9,31.6,552
Syrian Arab Republic,WesternAsia,185180,18270,28393,102.1,57.7,2.7,237
Tajikistan,CentralAsia,142600,8921,7853,100.9,26.8,3,76
Thailand,South-easternAsia,513120,69038,395168,95.2,50.4,32,3338
The former Yugoslav Republic of Macedonia,SouthernEurope,25713,2083,10052,100,57.1,39.6,53
Timor-Leste,South-easternAsia,14919,1296,2873,103.2,32.8,46.9,143
Togo,WesternAfrica,56785,7798,4086,99.4,40,3.8,111
Tokelau,Polynesia,12,1,0,100,0,0,0
Tonga,Polynesia,747,108,402,100.7,23.7,12.5,0
Trinidad and Tobago,Caribbean,5127,1369,25927,97.1,8.4,45.4,1663
Tunisia,NorthernAfrica,163610,11532,41199,97.6,66.8,6.6,274
Turkey,WesternAsia,783562,80745,717888,97,73.4,15.1,1303
Turkmenistan,CentralAsia,488100,5758,37597,97,50,8.8,3270
Turks and Caicos Islands,Caribbean,948,35,863,104.1,92.2,36.2,0
Tuvalu,Polynesia,26,11,33,102,59.7,33.3,0
Uganda,EasternAfrica,241550,42863,25282,99,16.1,11,409
Ukraine,EasternEurope,603500,44223,90615,86,69.7,16.6,3203
United Arab Emirates,WesternAsia,83600,9400,370296,262.4,85.5,3.8,8642
United Kingdom,NorthernEurope,242495,66182,2858003,97.4,82.6,12.9,4482
United Republic of Tanzania,EasternAfrica,947303,57310,45628,97.8,31.6,52.4,935
United States of America,NorthernAmerica,9833517,324460,18036648,98,81.6,33.9,83887
United States Virgin Islands,Caribbean,347,105,0,91.1,95.3,50.6,0
Uruguay,SouthAmerica,173626,3457,53442,93.5,95.3,10.4,113
Uzbekistan,CentralAsia,448969,31911,69004,99.4,36.4,7.6,2339
Vanuatu,Melanesia,12189,276,737,102.4,26.1,36.1,1
Venezuela (Bolivarian Republic of),SouthAmerica,912050,31977,344331,99,89,53.1,7460
Viet Nam,South-easternAsia,330967,95541,193241,98,33.6,47.2,2977
Wallis and Futuna Islands,Polynesia,142,12,0,93.4,0,41.6,0
Western Sahara,NorthernAfrica,266000,553,0,110.1,80.9,2.7,0
Yemen,WesternAsia,527968,28250,29688,102.1,34.6,1,668
Zambia,EasternAfrica,752612,17094,21255,98.5,40.9,65.6,374
Zimbabwe,EasternAfrica,390757,16530,13893,95,32.4,37.2,482
