{
  "name": "world",
  "uncertainty": 0,
  "size": 1,
  "children": [
    {
      "name": "Oceania",
      "uncertainty": 0,
      "size": 1,
      "children": [
        {
          "name": "Melanesia",
          "uncertainty": 0,
          "size": 1,
          "children": [
            {
              "name": "Fiji",
              "uncertainty": 0,
              "size": 1
            },
            {
              "name": "New Caledonia",
              "uncertainty": 0,
              "size": 1
            },
            {
              "name": "Papua New Guinea",
              "uncertainty": 0,
              "size": 1
            },
            {
              "name": "Solomon Islands",
              "uncertainty": 0,
              "size": 1
            },
            {
              "name": "Vanuatu",
              "uncertainty": 0,
              "size": 1
            }
          ]
        },
        {
          "name": "Micronesia",
          "uncertainty": 0,
          "size": 1,
          "children": [
            {
              "name": "Guam",
              "uncertainty": 0,
              "size": 1
            },
            {
              "name": "Kiribati",
              "uncertainty": 0,
              "size": 1
            },
            {
              "name": "Marshall Islands",
              "uncertainty": 0,
              "size": 1
            },
            {
              "name": "Micronesia (Federated States of)",
              "uncertainty": 0,
              "size": 1
            },
            {
              "name": "Nauru",
              "uncertainty": 0,
              "size": 1
            },
            {
              "name": "Northern Mariana Islands",
              "uncertainty": 0,
              "size": 1
            },
            {
              "name": "Palau",
              "uncertainty": 0,
              "size": 1
            }
          ]
        },
        {
          "name": "Polynesia",
          "uncertainty": 0,
          "size": 1,
          "children": [
            {
              "name": "American Samoa",
              "uncertainty": 0,
              "size": 1
            },
            {
              "name": "Cook Islands",
              "uncertainty": 0,
              "size": 1
            },
            {
              "name": "French Polynesia",
              "uncertainty": 0,
              "size": 1
            },
            {
              "name": "Niue",
              "uncertainty": 0,
              "size": 1
            },
            {
              "name": "Samoa",
              "uncertainty": 0,
              "size": 1
            },
            {
              "name": "Tokelau",
              "uncertainty": 0,
              "size": 1
            },
            {
              "name": "Tonga",
              "uncertainty": 0,
              "size": 1
            },
            {
              "name": "Tuvalu",
              "uncertainty": 0,
              "size": 1
            },
            {
              "name": "Wallis and Futuna Islands",
              "uncertainty": 0,
              "size": 1
            }
          ]
        },
        {
          "name": "Australia",
          "uncertainty": 0,
          "size": 1
        },
        {
          "name": "New Zealand",
          "uncertainty": 0,
          "size": 1
        }
      ]
    },
    {
      "name": "Africa",
      "uncertainty": 0,
      "size": 1,
      "children": [
        {
          "name": "WesternAfrica",
          "uncertainty": 0,
          "size": 1,
          "children": [
            {
              "name": "Benin",
              "uncertainty": 0,
              "size": 1
            },
            {
              "name": "Burkina Faso",
              "uncertainty": 0,
              "size": 1
            },
            {
              "name": "Cabo Verde",
              "uncertainty": 0,
              "size": 1
            },
            {
              "name": "Gambia",
              "uncertainty": 0,
              "size": 1
            },
            {
              "name": "Ghana",
              "uncertainty": 0,
              "size": 1
            },
            {
              "name": "Guinea-Bissau",
              "uncertainty": 0,
              "size": 1
            },
            {
              "name": "Guinea",
              "uncertainty": 0,
              "size": 1
            },
            {
              "name": "Liberia",
              "uncertainty": 0,
              "size": 1
            },
            {
              "name": "Mali",
              "uncertainty": 0,
              "size": 1
            },
            {
              "name": "Mauritania",
              "uncertainty": 0,
              "size": 1
            },
            {
              "name": "Niger",
              "uncertainty": 0,
              "size": 1
            },
            {
              "name": "Nigeria",
              "uncertainty": 0,
              "size": 1
            },
            {
              "name": "Saint Helena",
              "uncertainty": 0,
              "size": 1
            },
            {
              "name": "Senegal",
              "uncertainty": 0,
              "size": 1
            },
            {
              "name": "Sierra Leone",
              "uncertainty": 0,
              "size": 1
            },
            {
              "name": "Togo",
              "uncertainty": 0,
              "size": 1
            }
          ]
        },
        {
          "name": "SouthernAfrica",
          "uncertainty": 0,
          "size": 1,
          "children": [
            {
              "name": "Botswana",
              "uncertainty": 0,
              "size": 1
            },
            {
              "name": "Lesotho",
              "uncertainty": 0,
              "size": 1
            },
            {
              "name": "Namibia",
              "uncertainty": 0,
              "size": 1
            },
            {
              "name": "South Africa",
              "uncertainty": 0,
              "size": 1
            },
            {
              "name": "Swaziland",
              "uncertainty": 0,
              "size": 1
            }
          ]
        },
        {
          "name": "EasternAfrica",
          "uncertainty": 0,
          "size": 1,
          "children": [
            {
              "name": "Burundi",
              "uncertainty": 0,
              "size": 1
            },
            {
              "name": "Comoros",
              "uncertainty": 0,
              "size": 1
            },
            {
              "name": "Djibouti",
              "uncertainty": 0,
              "size": 1
            },
            {
              "name": "Eritrea",
              "uncertainty": 0,
              "size": 1
            },
            {
              "name": "Ethiopia",
              "uncertainty": 0,
              "size": 1
            },
            {
              "name": "Kenya",
              "uncertainty": 0,
              "size": 1
            },
            {
              "name": "Madagascar",
              "uncertainty": 0,
              "size": 1
            },
            {
              "name": "Malawi",
              "uncertainty": 0,
              "size": 1
            },
            {
              "name": "Mauritius",
              "uncertainty": 0,
              "size": 1
            },
            {
              "name": "Mayotte",
              "uncertainty": 0,
              "size": 1
            },
            {
              "name": "Mozambique",
              "uncertainty": 0,
              "size": 1
            },
            {
              "name": "Rwanda",
              "uncertainty": 0,
              "size": 1
            },
            {
              "name": "Seychelles",
              "uncertainty": 0,
              "size": 1
            },
            {
              "name": "Somalia",
              "uncertainty": 0,
              "size": 1
            },
            {
              "name": "South Sudan",
              "uncertainty": 0,
              "size": 1
            },
            {
              "name": "Uganda",
              "uncertainty": 0,
              "size": 1
            },
            {
              "name": "United Republic of Tanzania",
              "uncertainty": 0,
              "size": 1
            },
            {
              "name": "Zambia",
              "uncertainty": 0,
              "size": 1
            },
            {
              "name": "Zimbabwe",
              "uncertainty": 0,
              "size": 1
            }
          ]
        },
        {
          "name": "MiddleAfrica",
          "uncertainty": 0,
          "size": 1,
          "children": [
            {
              "name": "Angola",
              "uncertainty": 0,
              "size": 1
            },
            {
              "name": "Cameroon",
              "uncertainty": 0,
              "size": 1
            },
            {
              "name": "Central African Republic",
              "uncertainty": 0,
              "size": 1
            },
            {
              "name": "Chad",
              "uncertainty": 0,
              "size": 1
            },
            {
              "name": "Congo",
              "uncertainty": 0,
              "size": 1
            },
            {
              "name": "Democratic Republic of the Congo",
              "uncertainty": 0,
              "size": 1
            },
            {
              "name": "Equatorial Guinea",
              "uncertainty": 0,
              "size": 1
            },
            {
              "name": "Gabon",
              "uncertainty": 0,
              "size": 1
            },
            {
              "name": "Sao Tome and Principe",
              "uncertainty": 0,
              "size": 1
            }
          ]
        },
        {
          "name": "NorthernAfrica",
          "uncertainty": 0,
          "size": 1,
          "children": [
            {
              "name": "Algeria",
              "uncertainty": 0,
              "size": 1
            },
            {
              "name": "Egypt",
              "uncertainty": 0,
              "size": 1
            },
            {
              "name": "Libya",
              "uncertainty": 0,
              "size": 1
            },
            {
              "name": "Morocco",
              "uncertainty": 0,
              "size": 1
            },
            {
              "name": "Sudan",
              "uncertainty": 0,
              "size": 1
            },
            {
              "name": "Tunisia",
              "uncertainty": 0,
              "size": 1
            },
            {
              "name": "Western Sahara",
              "uncertainty": 0,
              "size": 1
            }
          ]
        }
      ]
    },
    {
      "name": "Asia",
      "uncertainty": 0,
      "size": 1,
      "children": [
        {
          "name": "EasternAsia",
          "uncertainty": 0,
          "size": 1,
          "children": [
            {
              "name": "China Hong Kong SAR",
              "uncertainty": 0,
              "size": 1
            },
            {
              "name": "China Macao SAR",
              "uncertainty": 0,
              "size": 1
            },
            {
              "name": "China",
              "uncertainty": 0,
              "size": 1
            },
            {
              "name": "Democratic Peoples Republic of Korea",
              "uncertainty": 0,
              "size": 1
            },
            {
              "name": "Japan",
              "uncertainty": 0,
              "size": 1
            },
            {
              "name": "Mongolia",
              "uncertainty": 0,
              "size": 1
            },
            {
              "name": "Republic of Korea",
              "uncertainty": 0,
              "size": 1
            }
          ]
        },
        {
          "name": "SouthernAsia",
          "uncertainty": 0,
          "size": 1,
          "children": [
            {
              "name": "Afghanistan",
              "uncertainty": 0,
              "size": 1
            },
            {
              "name": "Bangladesh",
              "uncertainty": 0,
              "size": 1
            },
            {
              "name": "Bhutan",
              "uncertainty": 0,
              "size": 1
            },
            {
              "name": "India",
              "uncertainty": 0,
              "size": 1
            },
            {
              "name": "Iran (Islamic Republic of)",
              "uncertainty": 0,
              "size": 1
            },
            {
              "name": "Maldives",
              "uncertainty": 0,
              "size": 1
            },
            {
              "name": "Nepal",
              "uncertainty": 0,
              "size": 1
            },
            {
              "name": "Pakistan",
              "uncertainty": 0,
              "size": 1
            },
            {
              "name": "Sri Lanka",
              "uncertainty": 0,
              "size": 1
            }
          ]
        },
        {
          "name": "WesternAsia",
          "uncertainty": 0,
          "size": 1,
          "children": [
            {
              "name": "Armenia",
              "uncertainty": 0,
              "size": 1
            },
            {
              "name": "Azerbaijan",
              "uncertainty": 0,
              "size": 1
            },
            {
              "name": "Bahrain",
              "uncertainty": 0,
              "size": 1
            },
            {
              "name": "Cyprus",
              "uncertainty": 0,
              "size": 1
            },
            {
              "name": "Georgia",
              "uncertainty": 0,
              "size": 1
            },
            {
              "name": "Iraq",
              "uncertainty": 0,
              "size": 1
            },
            {
              "name": "Israel",
              "uncertainty": 0,
              "size": 1
            },
            {
              "name": "Jordan",
              "uncertainty": 0,
              "size": 1
            },
            {
              "name": "Kuwait",
              "uncertainty": 0,
              "size": 1
            },
            {
              "name": "Lebanon",
              "uncertainty": 0,
              "size": 1
            },
            {
              "name": "Oman",
              "uncertainty": 0,
              "size": 1
            },
            {
              "name": "Qatar",
              "uncertainty": 0,
              "size": 1
            },
            {
              "name": "Saudi Arabia",
              "uncertainty": 0,
              "size": 1
            },
            {
              "name": "State of Palestine",
              "uncertainty": 0,
              "size": 1
            },
            {
              "name": "Syrian Arab Republic",
              "uncertainty": 0,
              "size": 1
            },
            {
              "name": "Turkey",
              "uncertainty": 0,
              "size": 1
            },
            {
              "name": "United Arab Emirates",
              "uncertainty": 0,
              "size": 1
            },
            {
              "name": "Yemen",
              "uncertainty": 0,
              "size": 1
            }
          ]
        },
        {
          "name": "South-easternAsia",
          "uncertainty": 0,
          "size": 1,
          "children": [
            {
              "name": "Brunei Darussalam",
              "uncertainty": 0,
              "size": 1
            },
            {
              "name": "Cambodia",
              "uncertainty": 0,
              "size": 1
            },
            {
              "name": "Indonesia",
              "uncertainty": 0,
              "size": 1
            },
            {
              "name": "Lao Peoples Democratic Republic",
              "uncertainty": 0,
              "size": 1
            },
            {
              "name": "Malaysia",
              "uncertainty": 0,
              "size": 1
            },
            {
              "name": "Myanmar",
              "uncertainty": 0,
              "size": 1
            },
            {
              "name": "Philippines",
              "uncertainty": 0,
              "size": 1
            },
            {
              "name": "Singapore",
              "uncertainty": 0,
              "size": 1
            },
            {
              "name": "Thailand",
              "uncertainty": 0,
              "size": 1
            },
            {
              "name": "Timor-Leste",
              "uncertainty": 0,
              "size": 1
            },
            {
              "name": "Viet Nam",
              "uncertainty": 0,
              "size": 1
            }
          ]
        },
        {
          "name": "CentralAsia",
          "uncertainty": 0,
          "size": 1,
          "children": [
            {
              "name": "Kazakhstan",
              "uncertainty": 0,
              "size": 1
            },
            {
              "name": "Kyrgyzstan",
              "uncertainty": 0,
              "size": 1
            },
            {
              "name": "Tajikistan",
              "uncertainty": 0,
              "size": 1
            },
            {
              "name": "Turkmenistan",
              "uncertainty": 0,
              "size": 1
            },
            {
              "name": "Uzbekistan",
              "uncertainty": 0,
              "size": 1
            }
          ]
        }
      ]
    },
    {
      "name": "Europe",
      "uncertainty": 0,
      "size": 1,
      "children": [
        {
          "name": "EasternEurope",
          "uncertainty": 0,
          "size": 1,
          "children": [
            {
              "name": "Belarus",
              "uncertainty": 0,
              "size": 1
            },
            {
              "name": "Bulgaria",
              "uncertainty": 0,
              "size": 1
            },
            {
              "name": "Czechia",
              "uncertainty": 0,
              "size": 1
            },
            {
              "name": "Hungary",
              "uncertainty": 0,
              "size": 1
            },
            {
              "name": "Poland",
              "uncertainty": 0,
              "size": 1
            },
            {
              "name": "Republic of Moldova",
              "uncertainty": 0,
              "size": 1
            },
            {
              "name": "Romania",
              "uncertainty": 0,
              "size": 1
            },
            {
              "name": "Russian Federation",
              "uncertainty": 0,
              "size": 1
            },
            {
              "name": "Slovakia",
              "uncertainty": 0,
              "size": 1
            },
            {
              "name": "Ukraine",
              "uncertainty": 0,
              "size": 1
            }
          ]
        },
        {
          "name": "NorthernEurope",
          "uncertainty": 0,
          "size": 1,
          "children": [
            {
              "name": "Channel Islands",
              "uncertainty": 0,
              "size": 1
            },
            {
              "name": "Denmark",
              "uncertainty": 0,
              "size": 1
            },
            {
              "name": "Estonia",
              "uncertainty": 0,
              "size": 1
            },
            {
              "name": "Faroe Islands",
              "uncertainty": 0,
              "size": 1
            },
            {
              "name": "Finland",
              "uncertainty": 0,
              "size": 1
            },
            {
              "name": "Iceland",
              "uncertainty": 0,
              "size": 1
            },
            {
              "name": "Ireland",
              "uncertainty": 0,
              "size": 1
            },
            {
              "name": "Isle of Man",
              "uncertainty": 0,
              "size": 1
            },
            {
              "name": "Latvia",
              "uncertainty": 0,
              "size": 1
            },
            {
              "name": "Lithuania",
              "uncertainty": 0,
              "size": 1
            },
            {
              "name": "Norway",
              "uncertainty": 0,
              "size": 1
            },
            {
              "name": "Sweden",
              "uncertainty": 0,
              "size": 1
            },
            {
              "name": "United Kingdom",
              "uncertainty": 0,
              "size": 1
            }
          ]
        },
        {
          "name": "SouthernEurope",
          "uncertainty": 0,
          "size": 1,
          "children": [
            {
              "name": "Albania",
              "uncertainty": 0,
              "size": 1
            },
            {
              "name": "Andorra",
              "uncertainty": 0,
              "size": 1
            },
            {
              "name": "Bosnia and Herzegovina",
              "uncertainty": 0,
              "size": 1
            },
            {
              "name": "Croatia",
              "uncertainty": 0,
              "size": 1
            },
            {
              "name": "Gibraltar",
              "uncertainty": 0,
              "size": 1
            },
            {
              "name": "Greece",
              "uncertainty": 0,
              "size": 1
            },
            {
              "name": "Holy See",
              "uncertainty": 0,
              "size": 1
            },
            {
              "name": "Italy",
              "uncertainty": 0,
              "size": 1
            },
            {
              "name": "Malta",
              "uncertainty": 0,
              "size": 1
            },
            {
              "name": "Montenegro",
              "uncertainty": 0,
              "size": 1
            },
            {
              "name": "Portugal",
              "uncertainty": 0,
              "size": 1
            },
            {
              "name": "San Marino",
              "uncertainty": 0,
              "size": 1
            },
            {
              "name": "Serbia",
              "uncertainty": 0,
              "size": 1
            },
            {
              "name": "Slovenia",
              "uncertainty": 0,
              "size": 1
            },
            {
              "name": "Spain",
              "uncertainty": 0,
              "size": 1
            },
            {
              "name": "The former Yugoslav Republic of Macedonia",
              "uncertainty": 0,
              "size": 1
            }
          ]
        },
        {
          "name": "WesternEurope",
          "uncertainty": 0,
          "size": 1,
          "children": [
            {
              "name": "Austria",
              "uncertainty": 0,
              "size": 1
            },
            {
              "name": "Belgium",
              "uncertainty": 0,
              "size": 1
            },
            {
              "name": "France",
              "uncertainty": 0,
              "size": 1
            },
            {
              "name": "Germany",
              "uncertainty": 0,
              "size": 1
            },
            {
              "name": "Liechtenstein",
              "uncertainty": 0,
              "size": 1
            },
            {
              "name": "Luxembourg",
              "uncertainty": 0,
              "size": 1
            },
            {
              "name": "Monaco",
              "uncertainty": 0,
              "size": 1
            },
            {
              "name": "Netherlands",
              "uncertainty": 0,
              "size": 1
            },
            {
              "name": "Switzerland",
              "uncertainty": 0,
              "size": 1
            }
          ]
        }
      ]
    },
    {
      "name": "America",
      "uncertainty": 0,
      "size": 1,
      "children": [
        {
          "name": "Caribbean",
          "uncertainty": 0,
          "size": 1,
          "children": [
            {
              "name": "Anguilla",
              "uncertainty": 0,
              "size": 1
            },
            {
              "name": "Antigua and Barbuda",
              "uncertainty": 0,
              "size": 1
            },
            {
              "name": "Aruba",
              "uncertainty": 0,
              "size": 1
            },
            {
              "name": "Bahamas",
              "uncertainty": 0,
              "size": 1
            },
            {
              "name": "Barbados",
              "uncertainty": 0,
              "size": 1
            },
            {
              "name": "Bonaire Sint Eustatius and Saba",
              "uncertainty": 0,
              "size": 1
            },
            {
              "name": "British Virgin Islands",
              "uncertainty": 0,
              "size": 1
            },
            {
              "name": "Cayman Islands",
              "uncertainty": 0,
              "size": 1
            },
            {
              "name": "Cuba",
              "uncertainty": 0,
              "size": 1
            },
            {
              "name": "Dominica",
              "uncertainty": 0,
              "size": 1
            },
            {
              "name": "Dominican Republic",
              "uncertainty": 0,
              "size": 1
            },
            {
              "name": "Grenada",
              "uncertainty": 0,
              "size": 1
            },
            {
              "name": "Guadeloupe",
              "uncertainty": 0,
              "size": 1
            },
            {
              "name": "Haiti",
              "uncertainty": 0,
              "size": 1
            },
            {
              "name": "Jamaica",
              "uncertainty": 0,
              "size": 1
            },
            {
              "name": "Martinique",
              "uncertainty": 0,
              "size": 1
            },
            {
              "name": "Montserrat",
              "uncertainty": 0,
              "size": 1
            },
            {
              "name": "Puerto Rico",
              "uncertainty": 0,
              "size": 1
            },
            {
              "name": "Saint Kitts and Nevis",
              "uncertainty": 0,
              "size": 1
            },
            {
              "name": "Saint Lucia",
              "uncertainty": 0,
              "size": 1
            },
            {
              "name": "Saint Vincent and the Grenadines",
              "uncertainty": 0,
              "size": 1
            },
            {
              "name": "Sint Maarten (Dutch part)",
              "uncertainty": 0,
              "size": 1
            },
            {
              "name": "Trinidad and Tobago",
              "uncertainty": 0,
              "size": 1
            },
            {
              "name": "Turks and Caicos Islands",
              "uncertainty": 0,
              "size": 1
            },
            {
              "name": "United States Virgin Islands",
              "uncertainty": 0,
              "size": 1
            }
          ]
        },
        {
          "name": "CentralAmerica",
          "uncertainty": 0,
          "size": 1,
          "children": [
            {
              "name": "Belize",
              "uncertainty": 0,
              "size": 1
            },
            {
              "name": "Costa Rica",
              "uncertainty": 0,
              "size": 1
            },
            {
              "name": "El Salvador",
              "uncertainty": 0,
              "size": 1
            },
            {
              "name": "Guatemala",
              "uncertainty": 0,
              "size": 1
            },
            {
              "name": "Honduras",
              "uncertainty": 0,
              "size": 1
            },
            {
              "name": "Mexico",
              "uncertainty": 0,
              "size": 1
            },
            {
              "name": "Nicaragua",
              "uncertainty": 0,
              "size": 1
            },
            {
              "name": "Panama",
              "uncertainty": 0,
              "size": 1
            }
          ]
        },
        {
          "name": "NorthernAmerica",
          "uncertainty": 0,
          "size": 1,
          "children": [
            {
              "name": "Bermuda",
              "uncertainty": 0,
              "size": 1
            },
            {
              "name": "Canada",
              "uncertainty": 0,
              "size": 1
            },
            {
              "name": "Greenland",
              "uncertainty": 0,
              "size": 1
            },
            {
              "name": "Saint Pierre and Miquelon",
              "uncertainty": 0,
              "size": 1
            },
            {
              "name": "United States of America",
              "uncertainty": 0,
              "size": 1
            }
          ]
        },
        {
          "name": "SouthAmerica",
          "uncertainty": 0,
          "size": 1,
          "children": [
            {
              "name": "Argentina",
              "uncertainty": 0,
              "size": 1
            },
            {
              "name": "Bolivia (Plurinational State of)",
              "uncertainty": 0,
              "size": 1
            },
            {
              "name": "Brazil",
              "uncertainty": 0,
              "size": 1
            },
            {
              "name": "Chile",
              "uncertainty": 0,
              "size": 1
            },
            {
              "name": "Colombia",
              "uncertainty": 0,
              "size": 1
            },
            {
              "name": "Ecuador",
              "uncertainty": 0,
              "size": 1
            },
            {
              "name": "Falkland Islands (Malvinas)",
              "uncertainty": 0,
              "size": 1
            },
            {
              "name": "French Guiana",
              "uncertainty": 0,
              "size": 1
            },
            {
              "name": "Guyana",
              "uncertainty": 0,
              "size": 1
            },
            {
              "name": "Paraguay",
              "uncertainty": 0,
              "size": 1
            },
            {
              "name": "Peru",
              "uncertainty": 0,
              "size": 1
            },
            {
              "name": "Suriname",
              "uncertainty": 0,
              "size": 1
            },
            {
              "name": "Uruguay",
              "uncertainty": 0,
              "size": 1
            },
            {
              "name": "Venezuela (Bolivarian Republic of)",
              "uncertainty": 0,
              "size": 1
            }
          ]
        }
      ]
    }
  ]
}